…
## The tibble

Data in tidyverse is organized primarily in a special data frame object called a
`tibble`. The `tibble()` function is defined in the [tibble
package](https://tibble.tidyverse.org/) of the tidyverse:

```
library(tibble) # or
library(tidyverse)
tbl <- tibble(
    x = rnorm(100, mean=20, sd=10),
    y = rnorm(100, mean=50, sd=5)
)
tbl
# A tibble: 100 x 2
       x     y
   <dbl> <dbl>
 1 16.5   54.6
 2 14.4   54.3
 3  7.87  53.7
 4  8.06  50.8
 5 37.2   57.1
 6 16.5   51.9
 7 15.8   50.1
 8 40.3   44.3
 9 12.0   49.8
10 23.8   50.1
# ... with 90 more rows
```
…
