…
## Common Biological Data Matrices

Typically the first data set you will work with in R is *processed data* as
described in the previous section. This data has been transformed from primary
data in some way such that it (usually) forms a numeric matrix with features
as rows and samples as columns. The first column of these files usually contains
a feature identifier, e.g. gene identifier, genomic locus, probe set ID, etc and
the remaining columns have numerical values, one per sample. The first row is
usually column names for all the columns in the file. Below is an example of one
of these files from a microarray gene expression dataset loaded into R:

```r
intensities <- read_csv("example_intensity_data.csv")
intensities
# A tibble: 54,675 x 36
   probe     GSM972389 GSM972390 GSM972396 GSM972401 GSM972409 GSM972412 GSM972413 GSM972422 GSM972429
   <chr>         <dbl>     <dbl>     <dbl>     <dbl>     <dbl>     <dbl>     <dbl>     <dbl>     <dbl>
 1 1007_s_at      9.54     10.2       9.72      9.68      9.35      9.89      9.70      9.67      9.87
 2 1053_at        7.62      7.92      7.17      7.24      8.20      6.87      6.62      7.23      7.45
 3 117_at         5.50      5.56      5.06      7.44      5.19      5.72      5.87      6.15      5.46
 4 121_at         7.27      7.96      7.42      7.34      7.49      7.76      7.44      7.66      8.02
 5 1255_g_at      2.79      3.10      2.78      2.91      3.02      2.73      2.78      3.56      2.83
 6 1294_at        7.51      7.28      7.00      7.18      7.38      6.98      6.90      7.54      7.66
 7 1316_at        3.89      4.36      4.24      3.94      4.20      4.34      4.06      4.24      4.11
 8 1320_at        4.65      4.91      4.70      4.78      5.06      4.71      4.55      4.58      5.10
 9 1405_i_at      8.03      7.47      5.42      7.21      9.48      6.79      6.57      8.50      6.36
10 1431_at        3.09      3.78      3.33      3.12      3.21      3.27      3.37      3.84      3.32
# ... with 54,665 more rows, and 26 more variables: GSM972433 <dbl>, GSM972438 <dbl>, GSM972440 <dbl>,
#   GSM972443 <dbl>, GSM972444 <dbl>, GSM972446 <dbl>, GSM972453 <dbl>, GSM972457 <dbl>,
#   GSM972459 <dbl>, GSM972463 <dbl>, GSM972467 <dbl>, GSM972472 <dbl>, GSM972473 <dbl>,
#   GSM972475 <dbl>, GSM972476 <dbl>, GSM972477 <dbl>, GSM972479 <dbl>, GSM972480 <dbl>,
#   GSM972487 <dbl>, GSM972488 <dbl>, GSM972489 <dbl>, GSM972496 <dbl>, GSM972502 <dbl>,
#   GSM972510 <dbl>, GSM972512 <dbl>, GSM972521 <dbl>
```
…
```r
# this assumes biomaRt is already installed through bioconductor
library(biomaRt)

# the human biomaRt database is named "hsapiens_gene_ensembl"
ensembl <- useEnsembl(biomart="ensembl", dataset="hsapiens_gene_ensembl")

# listAttributes() returns a data frame, turn into a tibble to help with formatting
as_tibble(listAttributes(ensembl))
# A tibble: 3,143 x 3
   name                          description                  page        
   <chr>                         <chr>                        <chr>       
 1 ensembl_gene_id               Gene stable ID               feature_page
 2 ensembl_gene_id_version       Gene stable ID version       feature_page
 3 ensembl_transcript_id         Transcript stable ID         feature_page
 4 ensembl_transcript_id_version Transcript stable ID version feature_page
 5 ensembl_peptide_id            Protein stable ID            feature_page
 6 ensembl_peptide_id_version    Protein stable ID version    feature_page
 7 ensembl_exon_id               Exon stable ID               feature_page
 8 description                   Gene description             feature_page
 9 chromosome_name               Chromosome/scaffold name     feature_page
10 start_position                Gene start (bp)              feature_page
# ... with 3,133 more rows
```

The `name` column provides the programmatic name associated with the attribute
that can be used to retrieve that annotation information using the `getBM()`
function:

```r
# create a tibble with ensembl gene ID, HGNC gene symbol, and gene description
gene_map <- as_tibble(
  getBM(
    attributes=c("ensembl_gene_id", "hgnc_gene_symbol", "description"),
    mart=ensembl
  )
)
gene_map
# A tibble: 68,012 x 3
   ensembl_gene_id hgnc_symbol description                                                               
   <chr>           <chr>       <chr>                                                                     
 1 ENSG00000210049 MT-TF       mitochondrially encoded tRNA-Phe (UUU/C) [Source:HGNC Symbol;Acc:HGNC:748~
 2 ENSG00000211459 MT-RNR1     mitochondrially encoded 12S rRNA [Source:HGNC Symbol;Acc:HGNC:7470]       
 3 ENSG00000210077 MT-TV       mitochondrially encoded tRNA-Val (GUN) [Source:HGNC Symbol;Acc:HGNC:7500]
 4 ENSG00000210082 MT-RNR2     mitochondrially encoded 16S rRNA [Source:HGNC Symbol;Acc:HGNC:7471]       
 5 ENSG00000209082 MT-TL1      mitochondrially encoded tRNA-Leu (UUA/G) 1 [Source:HGNC Symbol;Acc:HGNC:7~
 6 ENSG00000198888 MT-ND1      mitochondrially encoded NADH:ubiquinone oxidoreductase core subunit 1 [So~
 7 ENSG00000210100 MT-TI       mitochondrially encoded tRNA-Ile (AUU/C) [Source:HGNC Symbol;Acc:HGNC:748~
 8 ENSG00000210107 MT-TQ       mitochondrially encoded tRNA-Gln (CAA/G) [Source:HGNC Symbol;Acc:HGNC:749~
 9 ENSG00000210112 MT-TM       mitochondrially encoded tRNA-Met (AUA/G) [Source:HGNC Symbol;Acc:HGNC:749~
10 ENSG00000198763 MT-ND2      mitochondrially encoded NADH:ubiquinone oxidoreductase core subunit 2 [So~
# ... with 68,002 more rows
```
…
```r
human_db <- useEnsembl("ensembl", dataset = "hsapiens_gene_ensembl")
mouse_db <- useEnsembl("ensembl", dataset = "mmusculus_gene_ensembl")
orth_map <- as_tibble(
  getLDS(attributes = c("ensembl_gene_id", "hgnc_symbol"),
       mart = human_db,
       attributesL = c("ensembl_gene_id", "mgi_symbol"),
       martL = mouse_db
  )
)
orth_map
# A tibble: 26,390 x 4
   Gene.stable.ID  HGNC.symbol Gene.stable.ID.1   MGI.symbol
   <chr>           <chr>       <chr>              <chr>     
 1 ENSG00000198695 MT-ND6      ENSMUSG00000064368 "mt-Nd6"  
 2 ENSG00000212907 MT-ND4L     ENSMUSG00000065947 "mt-Nd4l"
 3 ENSG00000279169 PRAMEF13    ENSMUSG00000094303 ""        
 4 ENSG00000279169 PRAMEF13    ENSMUSG00000094722 ""        
 5 ENSG00000279169 PRAMEF13    ENSMUSG00000095666 ""        
 6 ENSG00000279169 PRAMEF13    ENSMUSG00000094741 ""        
 7 ENSG00000279169 PRAMEF13    ENSMUSG00000094836 ""        
 8 ENSG00000279169 PRAMEF13    ENSMUSG00000074720 ""        
 9 ENSG00000279169 PRAMEF13    ENSMUSG00000096236 ""        
10 ENSG00000198763 MT-ND2      ENSMUSG00000064345 "mt-Nd2"  
# ... with 26,380 more rows
```
…
