…
# Back to data wrangling

## The tibble

* Data in tidyverse organized in a special data frame object called a `tibble`

<pre class="codeblock">
  library(tibble)
  tbl <- tibble(
      x = rnorm(100, mean=20, sd=10),
      y = rnorm(100, mean=50, sd=5)
  )
  tbl
  # A tibble: 100 x 2
         x     y
     <dbl> <dbl>
   1 16.5   54.6
   2 14.4   54.3
   # ... with 98 more rows
…
