…
## Example Counts Matrix

```{r}
counts
```

```{r, include=FALSE}
## A tibble: 55,416 × 9
#   gene                  P0_1  P0_2  P4_1  P4_2  P7_1  P7_2  Ad_1  Ad_2
#   <chr>                <dbl> <dbl> <dbl> <dbl> <dbl> <dbl> <dbl> <dbl>
# 1 ENSMUSG00000102693.2     0     0     0     0     0     0     0     0
# 2 ENSMUSG00000064842.3     0     0     0     0     0     0     0     0
# 3 ENSMUSG00000051951.6    19    24    17    17    17    12     7     5
# 4 ENSMUSG00000102851.2     0     0     0     0     1     0     0     0
# 5 ENSMUSG00000103377.2     1     0     0     1     0     1     1     0
# 6 ENSMUSG00000104017.2     0     3     0     0     0     1     0     0
# 7 ENSMUSG00000103025.2     0     0     0     0     0     0     0     0
# 8 ENSMUSG00000089699.2     0     0     0     0     0     0     0     0
# 9 ENSMUSG00000103201.2     0     0     0     0     0     0     0     1
#10 ENSMUSG00000103147.2     0     0     0     0     0     0     0     0
## … with 55,406 more rows
```
…
