…
# Back to data wrangling

## The tibble

* Data in tidyverse organized in a special data frame object called a `tibble`

<pre class="codeblock">
  library(tibble)
  tbl <- tibble(
      x = rnorm(100, mean=20, sd=10),
      y = rnorm(100, mean=50, sd=5)
  )
  tbl
  # A tibble: 100 x 2
         x     y
     <dbl> <dbl>
   1 16.5   54.6
   2 14.4   54.3
   # ... with 98 more rows
…
```r
# this assumes biomaRt is already installed through bioconductor
library(biomaRt)

# the human biomaRt database is named "hsapiens_gene_ensembl"
ensembl <- useEnsembl(biomart="ensembl", dataset="hsapiens_gene_ensembl")
```

## `biomaRt` Example

```r
# listAttributes() returns a data frame, convert to tibble
as_tibble(listAttributes(ensembl))
# A tibble: 3,143 x 3
   name                          description                  page        
   <chr>                         <chr>                        <chr>       
 1 ensembl_gene_id               Gene stable ID               feature_page
 2 ensembl_gene_id_version       Gene stable ID version       feature_page
 3 ensembl_transcript_id         Transcript stable ID         feature_page
 4 ensembl_transcript_id_version Transcript stable ID version feature_page
 5 ensembl_peptide_id            Protein stable ID            feature_page
 6 ensembl_peptide_id_version    Protein stable ID version    feature_page
 7 ensembl_exon_id               Exon stable ID               feature_page
 8 description                   Gene description             feature_page
 9 chromosome_name               Chromosome/scaffold name     feature_page
10 start_position                Gene start (bp)              feature_page
# ... with 3,133 more rows
```
…
```r
# create a tibble with ensembl gene ID, HGNC gene symbol, and gene description
gene_map <- as_tibble(
  getBM(
    attributes=c("ensembl_gene_id", "hgnc_symbol", "description"),
    mart=ensembl
  )
)
```

## `biomaRt` Example

```r
gene_map
# A tibble: 68,012 x 3
   ensembl_gene_id hgnc_symbol description                                                               
   <chr>           <chr>       <chr>                                                                     
 1 ENSG00000210049 MT-TF       mitochondrially encoded tRNA-Phe ...
 2 ENSG00000211459 MT-RNR1     mitochondrially encoded 12S rRNA ...
 3 ENSG00000210077 MT-TV       mitochondrially encoded tRNA-Val ...
 4 ENSG00000210082 MT-RNR2     mitochondrially encoded 16S rRNA ...
 5 ENSG00000209082 MT-TL1      mitochondrially encoded tRNA-Leu ...
 6 ENSG00000198888 MT-ND1      mitochondrially encoded NADH:ubiquinone
 7 ENSG00000210100 MT-TI       mitochondrially encoded tRNA-Ile ...
 8 ENSG00000210107 MT-TQ       mitochondrially encoded tRNA-Gln ...
 9 ENSG00000210112 MT-TM       mitochondrially encoded tRNA-Met ...
10 ENSG00000198763 MT-ND2      mitochondrially encoded NADH:ubiquinone
# ... with 68,002 more rows
```
…
## Multiple matches

* Sometimes one table will have multiple rows that match the values in the other
* Read the [textbook
  chapter](../data-wrangling.html#dealing-with-multiple-matches) on how to
  handle

# Mapping Homologs

## Mapping Homologs

```r
orth_map
# A tibble: 26,390 x 4
   Gene.stable.ID  HGNC.symbol Gene.stable.ID.1   MGI.symbol
   <chr>           <chr>       <chr>              <chr>     
 1 ENSG00000198695 MT-ND6      ENSMUSG00000064368 "mt-Nd6"  
 2 ENSG00000212907 MT-ND4L     ENSMUSG00000065947 "mt-Nd4l"
 3 ENSG00000279169 PRAMEF13    ENSMUSG00000094303 ""        
 4 ENSG00000279169 PRAMEF13    ENSMUSG00000094722 ""        
 5 ENSG00000279169 PRAMEF13    ENSMUSG00000095666 ""        
 6 ENSG00000279169 PRAMEF13    ENSMUSG00000094741 ""        
 7 ENSG00000279169 PRAMEF13    ENSMUSG00000094836 ""        
 8 ENSG00000279169 PRAMEF13    ENSMUSG00000074720 ""        
 9 ENSG00000279169 PRAMEF13    ENSMUSG00000096236 ""        
10 ENSG00000198763 MT-ND2      ENSMUSG00000064345 "mt-Nd2"  
# ... with 26,380 more rows
```
…
