9 Biology & Bioinformatics | BF591 - R for Biological Sciences
…
Typically the first data set you will work with in R is processed data as
described in the previous section. This data has been transformed from primary
data in some way such that it (usually) forms a numeric matrix with features
as rows and samples as columns. The first column of these files usually contains
a feature identifier, e.g. gene identifier, genomic locus, probe set ID, etc and
the remaining columns have numerical values, one per sample. The first row is
usually column names for all the columns in the file. Below is an example of one
of these files from a microarray gene expression dataset loaded into R:

intensities <- read_csv("example_intensity_data.csv")
intensities
# A tibble: 54,675 x 36
   probe     GSM972389 GSM972390 GSM972396 GSM972401 GSM972409 GSM972412 GSM972413 GSM972422 GSM972429
   <chr>         <dbl>     <dbl>     <dbl>     <dbl>     <dbl>     <dbl>     <dbl>     <dbl>     <dbl>
 1 1007_s_at      9.54     10.2       9.72      9.68      9.35      9.89      9.70      9.67      9.87
 2 1053_at        7.62      7.92      7.17      7.24      8.20      6.87      6.62      7.23      7.45
 3 117_at         5.50      5.56      5.06      7.44      5.19      5.72      5.87      6.15      5.46
 4 121_at         7.27      7.96      7.42      7.34      7.49      7.76      7.44      7.66      8.02
 5 1255_g_at      2.79      3.10      2.78      2.91      3.02      2.73      2.78      3.56      2.83
 6 1294_at        7.51      7.28      7.00      7.18      7.38      6.98      6.90      7.54      7.66
 7 1316_at        3.89      4.36      4.24      3.94      4.20      4.34      4.06      4.24      4.11
 8 1320_at        4.65      4.91      4.70      4.78      5.06      4.71      4.55      4.58      5.10
 9 1405_i_at      8.03      7.47      5.42      7.21      9.48      6.79      6.57      8.50      6.36
10 1431_at        3.09      3.78      3.33      3.12      3.21      3.27      3.37      3.84      3.32
# ... with 54,665 more rows, and 26 more variables: GSM972433 <dbl>, GSM972438 <dbl>, GSM972440 <dbl>,
#   GSM972443 <dbl>, GSM972444 <dbl>, GSM972446 <dbl>, GSM972453 <dbl>, GSM972457 <dbl>,
#   GSM972459 <dbl>, GSM972463 <dbl>, GSM972467 <dbl>, GSM972472 <dbl>, GSM972473 <dbl>,
#   GSM972475 <dbl>, GSM972476 <dbl>, GSM972477 <dbl>, GSM972479 <dbl>, GSM972480 <dbl>,
#   GSM972487 <dbl>, GSM972488 <dbl>, GSM972489 <dbl>, GSM972496 <dbl>, GSM972502 <dbl>,
#   GSM972510 <dbl>, GSM972512 <dbl>, GSM972521 <dbl>
…
# this assumes biomaRt is already installed through bioconductor
library(biomaRt)

# the human biomaRt database is named "hsapiens_gene_ensembl"
ensembl <- useEnsembl(biomart="ensembl", dataset="hsapiens_gene_ensembl")

# listAttributes() returns a data frame, turn into a tibble to help with formatting
as_tibble(listAttributes(ensembl))
# A tibble: 3,143 x 3
   name                          description                  page        
   <chr>                         <chr>                        <chr>       
 1 ensembl_gene_id               Gene stable ID               feature_page
 2 ensembl_gene_id_version       Gene stable ID version       feature_page
 3 ensembl_transcript_id         Transcript stable ID         feature_page
 4 ensembl_transcript_id_version Transcript stable ID version feature_page
 5 ensembl_peptide_id            Protein stable ID            feature_page
 6 ensembl_peptide_id_version    Protein stable ID version    feature_page
 7 ensembl_exon_id               Exon stable ID               feature_page
 8 description                   Gene description             feature_page
 9 chromosome_name               Chromosome/scaffold name     feature_page
10 start_position                Gene start (bp)              feature_page
# ... with 3,133 more rows

The name column provides the programmatic name associated with the attribute
that can be used to retrieve that annotation information using the getBM()
function:

# create a tibble with ensembl gene ID, HGNC gene symbol, and gene description
gene_map <- as_tibble(
  getBM(
    attributes=c("ensembl_gene_id", "hgnc_symbol", "description"),
    mart=ensembl
  )
)
gene_map
# A tibble: 68,012 x 3
   ensembl_gene_id hgnc_symbol description                                                               
   <chr>           <chr>       <chr>                                                                     
 1 ENSG00000210049 MT-TF       mitochondrially encoded tRNA-Phe (UUU/C) [Source:HGNC Symbol;Acc:HGNC:748~
 2 ENSG00000211459 MT-RNR1     mitochondrially encoded 12S rRNA [Source:HGNC Symbol;Acc:HGNC:7470]       
 3 ENSG00000210077 MT-TV       mitochondrially encoded tRNA-Val (GUN) [Source:HGNC Symbol;Acc:HGNC:7500]
 4 ENSG00000210082 MT-RNR2     mitochondrially encoded 16S rRNA [Source:HGNC Symbol;Acc:HGNC:7471]       
 5 ENSG00000209082 MT-TL1      mitochondrially encoded tRNA-Leu (UUA/G) 1 [Source:HGNC Symbol;Acc:HGNC:7~
 6 ENSG00000198888 MT-ND1      mitochondrially encoded NADH:ubiquinone oxidoreductase core subunit 1 [So~
 7 ENSG00000210100 MT-TI       mitochondrially encoded tRNA-Ile (AUU/C) [Source:HGNC Symbol;Acc:HGNC:748~
 8 ENSG00000210107 MT-TQ       mitochondrially encoded tRNA-Gln (CAA/G) [Source:HGNC Symbol;Acc:HGNC:749~
 9 ENSG00000210112 MT-TM       mitochondrially encoded tRNA-Met (AUA/G) [Source:HGNC Symbol;Acc:HGNC:749~
10 ENSG00000198763 MT-ND2      mitochondrially encoded NADH:ubiquinone oxidoreductase core subunit 2 [So~
# ... with 68,002 more rows
…
human_db <- useEnsembl("ensembl", dataset = "hsapiens_gene_ensembl")
mouse_db <- useEnsembl("ensembl", dataset = "mmusculus_gene_ensembl")
orth_map <- as_tibble(
  getLDS(attributes = c("ensembl_gene_id", "hgnc_symbol"),
       mart = human_db,
       attributesL = c("ensembl_gene_id", "mgi_symbol"),
       martL = mouse_db
  )
)
orth_map
# A tibble: 26,390 x 4
   Gene.stable.ID  HGNC.symbol Gene.stable.ID.1   MGI.symbol
   <chr>           <chr>       <chr>              <chr>     
 1 ENSG00000198695 MT-ND6      ENSMUSG00000064368 "mt-Nd6"  
 2 ENSG00000212907 MT-ND4L     ENSMUSG00000065947 "mt-Nd4l"
 3 ENSG00000279169 PRAMEF13    ENSMUSG00000094303 ""        
 4 ENSG00000279169 PRAMEF13    ENSMUSG00000094722 ""        
 5 ENSG00000279169 PRAMEF13    ENSMUSG00000095666 ""        
 6 ENSG00000279169 PRAMEF13    ENSMUSG00000094741 ""        
 7 ENSG00000279169 PRAMEF13    ENSMUSG00000094836 ""        
 8 ENSG00000279169 PRAMEF13    ENSMUSG00000074720 ""        
 9 ENSG00000279169 PRAMEF13    ENSMUSG00000096236 ""        
10 ENSG00000198763 MT-ND2      ENSMUSG00000064345 "mt-Nd2"  
# ... with 26,380 more rows
…
We shall consider an example RNASeq dataset generated by (O’Meara et al. 2015)
generated to study how mouse cardiac cells can regenerate up until one week
of age, after which they lose the ability to do so. The dataset has eight
RNASeq samples, two for each of four time points across the developmental window
until adulthood. We will load in the expression data as a tibble:

counts <- read_tsv("verse_counts.tsv")
counts

## # A tibble: 55,416 × 9
##    gene                  P0_1  P0_2  P4_1  P4_2  P7_1  P7_2  Ad_1  Ad_2
##    <chr>                <dbl> <dbl> <dbl> <dbl> <dbl> <dbl> <dbl> <dbl>
##  1 ENSMUSG00000102693.2     0     0     0     0     0     0     0     0
##  2 ENSMUSG00000064842.3     0     0     0     0     0     0     0     0
##  3 ENSMUSG00000051951.6    19    24    17    17    17    12     7     5
##  4 ENSMUSG00000102851.2     0     0     0     0     1     0     0     0
##  5 ENSMUSG00000103377.2     1     0     0     1     0     1     1     0
##  6 ENSMUSG00000104017.2     0     3     0     0     0     1     0     0
##  7 ENSMUSG00000103025.2     0     0     0     0     0     0     0     0
##  8 ENSMUSG00000089699.2     0     0     0     0     0     0     0     0
##  9 ENSMUSG00000103201.2     0     0     0     0     0     0     0     1
## 10 ENSMUSG00000103147.2     0     0     0     0     0     0     0     0
## # ℹ 55,406 more rows
…
Genes that were not detected in any sample are the easiest to filter, and often
eliminate many genes from consideration. Below we filter out all genes that have
zero counts in all samples:

nonzero_genes <- rowSums(counts[-1])!=0
filtered_counts <- counts[nonzero_genes,]
filtered_counts

## # A tibble: 32,613 × 9
##    gene                   P0_1  P0_2  P4_1  P4_2  P7_1  P7_2  Ad_1  Ad_2
##    <chr>                 <dbl> <dbl> <dbl> <dbl> <dbl> <dbl> <dbl> <dbl>
##  1 ENSMUSG00000051951.6     19    24    17    17    17    12     7     5
##  2 ENSMUSG00000102851.2      0     0     0     0     1     0     0     0
##  3 ENSMUSG00000103377.2      1     0     0     1     0     1     1     0
##  4 ENSMUSG00000104017.2      0     3     0     0     0     1     0     0
##  5 ENSMUSG00000103201.2      0     0     0     0     0     0     0     1
##  6 ENSMUSG00000103161.2      0     0     1     0     0     0     0     0
##  7 ENSMUSG00000102331.2      5     8     2     6     6    11     4     3
##  8 ENSMUSG00000102343.2      0     0     0     1     0     0     0     0
##  9 ENSMUSG00000025900.14     4     3     6     7     7     3    36    35
## 10 ENSMUSG00000102948.2      1     0     0     0     0     0     0     1
## # ℹ 32,603 more rows

Only 32,613 genes remain after filtering out genes with all zeros, eliminating
nearly 23,000 genes, or more than 40% of the genes in the annotation. Filtering
genes with zeros in all samples as we have done above is somewhat liberal, as
there may be many genes with reads in only one sample. Genes with only a single
sample with a non-zero count also cannot be differentially expressed, so we can
easily decide to eliminate those as well:

nonzero_genes <- rowSums(counts[-1])>=2
filtered_counts <- counts[nonzero_genes,]
filtered_counts

## # A tibble: 28,979 × 9
##    gene                   P0_1  P0_2  P4_1  P4_2  P7_1  P7_2  Ad_1  Ad_2
##    <chr>                 <dbl> <dbl> <dbl> <dbl> <dbl> <dbl> <dbl> <dbl>
##  1 ENSMUSG00000051951.6     19    24    17    17    17    12     7     5
##  2 ENSMUSG00000103377.2      1     0     0     1     0     1     1     0
##  3 ENSMUSG00000104017.2      0     3     0     0     0     1     0     0
##  4 ENSMUSG00000102331.2      5     8     2     6     6    11     4     3
##  5 ENSMUSG00000025900.14     4     3     6     7     7     3    36    35
##  6 ENSMUSG00000102948.2      1     0     0     0     0     0     0     1
##  7 ENSMUSG00000025902.14   195   186   204   229   157   173   196   129
##  8 ENSMUSG00000104238.2      0     4     0     2     4     1     3     3
##  9 ENSMUSG00000102269.2      7    16     6     6     4     6     8     3
## 10 ENSMUSG00000118917.1      0     1     0     0     1     1     0     0
## # ℹ 28,969 more rows
…
res <- results(dds, name="timepoint_P0_vs_Ad")
p0_vs_Ad_de <- as_tibble(res) %>%
  mutate(gene=rownames(res)) %>%
  relocate(gene) %>%
  arrange(pvalue)
p0_vs_Ad_de

## # A tibble: 21,213 × 7
##    gene                  baseMean log2FoldChange lfcSE  stat    pvalue      padj
##    <chr>                    <dbl>          <dbl> <dbl> <dbl>     <dbl>     <dbl>
##  1 ENSMUSG00000000031.17   19624.           6.75 0.190  35.6 5.70e-278 1.07e-273
##  2 ENSMUSG00000026418.17    9671.           9.84 0.285  34.5 2.29e-261 2.15e-257
##  3 ENSMUSG00000051855.16    3462.           5.35 0.157  34.1 2.84e-255 1.77e-251
##  4 ENSMUSG00000027750.17    9482.           4.05 0.125  32.4 2.26e-230 1.06e-226
##  5 ENSMUSG00000042828.13    3906.          -5.32 0.167 -31.8 1.67e-221 6.25e-218
##  6 ENSMUSG00000046598.16    1154.          -6.08 0.197 -30.8 4.77e-208 1.49e-204
##  7 ENSMUSG00000019817.19    1952.           5.15 0.171  30.1 1.43e-198 3.83e-195
##  8 ENSMUSG00000021622.4    17146.          -4.57 0.157 -29.0 4.41e-185 1.03e-181
##  9 ENSMUSG00000002500.16    2121.          -6.20 0.217 -28.5 6.69e-179 1.39e-175
## 10 ENSMUSG00000024598.10    1885.           5.90 0.209  28.2 5.56e-175 1.04e-171
## # ℹ 21,203 more rows
…
lfcSE - the standard error for the log2FoldChange estimate

stat - the Wald statistic associated with the log2FoldChange estimate

pvalue - the nominal p-value of the Wald test (i.e. the signifiance of the association)

padj - the multiple testing adjusted p-value (i.e. false discovery rate)

In the P0 vs Ad comparison, we can check the number of significant results easily:

# number of genes significant at FDR < 0.05
filter(p0_vs_Ad_de,padj<0.05)

## # A tibble: 7,557 × 7
##    gene                  baseMean log2FoldChange lfcSE  stat    pvalue      padj
##    <chr>                    <dbl>          <dbl> <dbl> <dbl>     <dbl>     <dbl>
##  1 ENSMUSG00000000031.17   19624.           6.75 0.190  35.6 5.70e-278 1.07e-273
##  2 ENSMUSG00000026418.17    9671.           9.84 0.285  34.5 2.29e-261 2.15e-257
##  3 ENSMUSG00000051855.16    3462.           5.35 0.157  34.1 2.84e-255 1.77e-251
##  4 ENSMUSG00000027750.17    9482.           4.05 0.125  32.4 2.26e-230 1.06e-226
##  5 ENSMUSG00000042828.13    3906.          -5.32 0.167 -31.8 1.67e-221 6.25e-218
##  6 ENSMUSG00000046598.16    1154.          -6.08 0.197 -30.8 4.77e-208 1.49e-204
##  7 ENSMUSG00000019817.19    1952.           5.15 0.171  30.1 1.43e-198 3.83e-195
##  8 ENSMUSG00000021622.4    17146.          -4.57 0.157 -29.0 4.41e-185 1.03e-181
##  9 ENSMUSG00000002500.16    2121.          -6.20 0.217 -28.5 6.69e-179 1.39e-175
## 10 ENSMUSG00000024598.10    1885.           5.90 0.209  28.2 5.56e-175 1.04e-171
## # ℹ 7,547 more rows
…
