6.1 Data Modeling | BF591 - R for Biological Sciences
…
6.1.1 A Worked Modeling Example

As an example, let’s consider a scenario where we wish to assess whether any of
three genes can help us distinguish between patients who have Parkinson’s
Disease and those who don’t by measuring the relative activity of those genes in
blood samples. We have the following made-up dataset:

gene_exp

## # A tibble: 200 x 5
##    sample_name `Disease Status` `Gene 1` `Gene 2` `Gene 3`
##    <chr>       <fct>               <dbl>    <dbl>    <dbl>
##  1 P1          Parkinson's          257.     636.     504.
##  2 P2          Parkinson's          241.     556.     484.
##  3 P3          Parkinson's          252.     426.     476.
##  4 P4          Parkinson's          271.     405.     458.
##  5 P5          Parkinson's          248.     482.     520.
##  6 P6          Parkinson's          275.     521.     460.
##  7 P7          Parkinson's          264.     415.     568.
##  8 P8          Parkinson's          276.     450.     495.
##  9 P9          Parkinson's          274.     490.     496.
## 10 P10         Parkinson's          251.     584.     573.
## # ... with 190 more rows
…
