5 Data Wrangling | BF591 - R for Biological Sciences
…
5.4 The tibble

Data in tidyverse is organized primarily in a special data frame object called a
tibble. The tibble() function is defined in the tibble
package of the tidyverse:

library(tibble) # or
library(tidyverse)
tbl <- tibble(
    x = rnorm(100, mean=20, sd=10),
    y = rnorm(100, mean=50, sd=5)
)
tbl
# A tibble: 100 x 2
       x     y
   <dbl> <dbl>
 1 16.5   54.6
 2 14.4   54.3
 3  7.87  53.7
 4  8.06  50.8
 5 37.2   57.1
 6 16.5   51.9
 7 15.8   50.1
 8 40.3   44.3
 9 12.0   49.8
10 23.8   50.1
# ... with 90 more rows
…
tibbles (and regular data frames) typically have names for their columns. In
the above example, the column names are x and y, accessed using the
colnames function:

colnames(tbl)
[1] "x" "y"

Column names may be changed using this same function:

colnames(tbl) <- c("a","b")
tbl
# A tibble: 100 x 2
       a     b
   <dbl> <dbl>
 1 16.5   54.6
 2 14.4   54.3
 3  7.87  53.7
 4  8.06  50.8
 5 37.2   57.1
 6 16.5   51.9
 7 15.8   50.1
 8 40.3   44.3
 9 12.0   49.8
10 23.8   50.1
# ... with 90 more rows
…
A simple example will be helpful. Let’s say we have a tibble containing the
result of a (made-up) statistical test for all the genes in a genome:

de_genes

## # A tibble: 39,535 x 4
##    hgnc_symbol  mean        p    padj
##    <chr>       <int>    <dbl>   <dbl>
##  1 MT-TF        5799 0.000910 0.00941
##  2 MT-RNR1       153 0.0272   0.0342 
##  3 MT-TV         115 0.0228   0.0301 
##  4 MT-RNR2       495 0.00318  0.0123 
##  5 MT-TL1      20201 0.000377 0.00841
##  6 MT-ND1        160 0.0179   0.0258 
##  7 MT-TI        3511 0.00247  0.0115 
##  8 MT-TQ         772 0.00376  0.0129 
##  9 MT-TM         301 0.00325  0.0124 
## 10 MT-ND2         12 0.107    0.111  
## # ... with 39,525 more rows
…
Let’s say we want to extract out all the HOX genes from our gene statistics. We
can write a regular expression that matches the pattern described above:

dplyr::filter(de_genes, str_detect(hgnc_symbol,"^HOX[A-D][0-9]+$")) %>%
  dplyr::arrange(hgnc_symbol)

## # A tibble: 39 x 4
##    hgnc_symbol  mean        p    padj
##    <chr>       <int>    <dbl>   <dbl>
##  1 HOXA1        8734 0.000858 0.00934
##  2 HOXA10       4149 0.00152  0.0102 
##  3 HOXA11        567 0.0101   0.0188 
##  4 HOXA13        411 0.0105   0.0191 
##  5 HOXA2         554 0.00600  0.0151 
##  6 HOXA3          18 0.0919   0.0959 
##  7 HOXA4         475 0.0113   0.0199 
##  8 HOXA5         434 0.0127   0.0211 
##  9 HOXA6        3983 0.00252  0.0115 
## 10 HOXA7         897 0.00961  0.0183 
## # ... with 29 more rows
…
the + character means “match one or more of the preceding expression”, which
in our case is the [0-9]. This allows us to match genes with only a single
number (e.g. HOXA1) as well as double digit numbers (e.g. HOXA10).

Since we know the cluster identifier part of the HOX gene names (i.e. the
[A-D] part) is exactly one character long, we could alternatively write the
regular expression as follows, using the special . character:

dplyr::filter(de_genes, str_detect(hgnc_symbol,"^HOX.[0-9]+$")) %>%
  dplyr::arrange(hgnc_symbol)

## # A tibble: 39 x 4
##    hgnc_symbol  mean        p    padj
##    <chr>       <int>    <dbl>   <dbl>
##  1 HOXA1        8734 0.000858 0.00934
##  2 HOXA10       4149 0.00152  0.0102 
##  3 HOXA11        567 0.0101   0.0188 
##  4 HOXA13        411 0.0105   0.0191 
##  5 HOXA2         554 0.00600  0.0151 
##  6 HOXA3          18 0.0919   0.0959 
##  7 HOXA4         475 0.0113   0.0199 
##  8 HOXA5         434 0.0127   0.0211 
##  9 HOXA6        3983 0.00252  0.0115 
## 10 HOXA7         897 0.00961  0.0183 
## # ... with 29 more rows
…
readr::read_tsv("mart_export.tsv") %>%
  dplyr::filter(
    `HGNC symbol` != "NA" & # many unstudied genes have Ensembl IDs but no official symbol
    `HGNC symbol` %in% `HGNC symbol`[duplicated(`HGNC symbol`)]) %>%
  dplyr::arrange(`HGNC symbol`)

## # A tibble: 7,268 x 3
##    `Gene stable ID` `HGNC symbol` `Gene name`                                
##    <chr>            <chr>         <chr>                                      
##  1 ENSG00000261846  AADACL2       arylacetamide deacetylase like 2           
##  2 ENSG00000197953  AADACL2       arylacetamide deacetylase like 2           
##  3 ENSG00000262466  AADACL2-AS1   <NA>                                       
##  4 ENSG00000242908  AADACL2-AS1   <NA>                                       
##  5 ENSG00000276072  AATF          apoptosis antagonizing transcription factor
##  6 ENSG00000275700  AATF          apoptosis antagonizing transcription factor
##  7 ENSG00000281173  ABCB10P1      <NA>                                       
##  8 ENSG00000280461  ABCB10P1      <NA>                                       
##  9 ENSG00000274099  ABCB10P1      <NA>                                       
## 10 ENSG00000282479  ABCB10P3      <NA>                                       
## # ... with 7,258 more rows
…
