8.7 Gene Expression | BF591 - R for Biological Sciences
…
We shall consider an example RNASeq dataset generated by (O’Meara et al. 2015)
generated to study how mouse cardiac cells can regenerate up until one week
of age, after which they lose the ability to do so. The dataset has eight
RNASeq samples, two for each of four time points across the developmental window
until adulthood. We will load in the expression data as a tibble:

counts <- read_tsv("verse_counts.tsv")
counts

## # A tibble: 55,416 x 9
##    gene                  P0_1  P0_2  P4_1  P4_2  P7_1  P7_2  Ad_1  Ad_2
##    <chr>                <dbl> <dbl> <dbl> <dbl> <dbl> <dbl> <dbl> <dbl>
##  1 ENSMUSG00000102693.2     0     0     0     0     0     0     0     0
##  2 ENSMUSG00000064842.3     0     0     0     0     0     0     0     0
##  3 ENSMUSG00000051951.6    19    24    17    17    17    12     7     5
##  4 ENSMUSG00000102851.2     0     0     0     0     1     0     0     0
##  5 ENSMUSG00000103377.2     1     0     0     1     0     1     1     0
##  6 ENSMUSG00000104017.2     0     3     0     0     0     1     0     0
##  7 ENSMUSG00000103025.2     0     0     0     0     0     0     0     0
##  8 ENSMUSG00000089699.2     0     0     0     0     0     0     0     0
##  9 ENSMUSG00000103201.2     0     0     0     0     0     0     0     1
## 10 ENSMUSG00000103147.2     0     0     0     0     0     0     0     0
## # ... with 55,406 more rows
…
Genes that were not detected in any sample are the easiest to filter, and often
eliminate many genes from consideration. Below we filter out all genes that have
zero counts in all samples:

nonzero_genes <- rowSums(counts[-1])!=0
filtered_counts <- counts[nonzero_genes,]
filtered_counts

## # A tibble: 32,613 x 9
##    gene                   P0_1  P0_2  P4_1  P4_2  P7_1  P7_2  Ad_1  Ad_2
##    <chr>                 <dbl> <dbl> <dbl> <dbl> <dbl> <dbl> <dbl> <dbl>
##  1 ENSMUSG00000051951.6     19    24    17    17    17    12     7     5
##  2 ENSMUSG00000102851.2      0     0     0     0     1     0     0     0
##  3 ENSMUSG00000103377.2      1     0     0     1     0     1     1     0
##  4 ENSMUSG00000104017.2      0     3     0     0     0     1     0     0
##  5 ENSMUSG00000103201.2      0     0     0     0     0     0     0     1
##  6 ENSMUSG00000103161.2      0     0     1     0     0     0     0     0
##  7 ENSMUSG00000102331.2      5     8     2     6     6    11     4     3
##  8 ENSMUSG00000102343.2      0     0     0     1     0     0     0     0
##  9 ENSMUSG00000025900.14     4     3     6     7     7     3    36    35
## 10 ENSMUSG00000102948.2      1     0     0     0     0     0     0     1
## # ... with 32,603 more rows

Only 32,613 genes remain after filtering out genes with all zeros, eliminating
nearly 23,000 genes, or more than 40% of the genes in the annotation. Filtering
genes with zeros in all samples as we have done above is somewhat liberal, as
there may be many genes with reads in only one sample. Genes with only a single
sample with a non-zero count also cannot be differentially expressed, so we can
easily decide to eliminate those as well:

nonzero_genes <- rowSums(counts[-1])>=2
filtered_counts <- counts[nonzero_genes,]
filtered_counts

## # A tibble: 28,979 x 9
##    gene                   P0_1  P0_2  P4_1  P4_2  P7_1  P7_2  Ad_1  Ad_2
##    <chr>                 <dbl> <dbl> <dbl> <dbl> <dbl> <dbl> <dbl> <dbl>
##  1 ENSMUSG00000051951.6     19    24    17    17    17    12     7     5
##  2 ENSMUSG00000103377.2      1     0     0     1     0     1     1     0
##  3 ENSMUSG00000104017.2      0     3     0     0     0     1     0     0
##  4 ENSMUSG00000102331.2      5     8     2     6     6    11     4     3
##  5 ENSMUSG00000025900.14     4     3     6     7     7     3    36    35
##  6 ENSMUSG00000102948.2      1     0     0     0     0     0     0     1
##  7 ENSMUSG00000025902.14   195   186   204   229   157   173   196   129
##  8 ENSMUSG00000104238.2      0     4     0     2     4     1     3     3
##  9 ENSMUSG00000102269.2      7    16     6     6     4     6     8     3
## 10 ENSMUSG00000118917.1      0     1     0     0     1     1     0     0
## # ... with 28,969 more rows
…
res <- results(dds, name="timepoint_P0_vs_Ad")
p0_vs_Ad_de <- as_tibble(res) %>%
  mutate(gene=rownames(res)) %>%
  relocate(gene) %>%
  arrange(pvalue)
p0_vs_Ad_de

## # A tibble: 21,213 x 7
##    gene                  baseMean log2FoldChange lfcSE  stat    pvalue      padj
##    <chr>                    <dbl>          <dbl> <dbl> <dbl>     <dbl>     <dbl>
##  1 ENSMUSG00000000031.17   19624.           6.75 0.190  35.6 5.70e-278 1.07e-273
##  2 ENSMUSG00000026418.17    9671.           9.84 0.285  34.5 2.29e-261 2.15e-257
##  3 ENSMUSG00000051855.16    3462.           5.35 0.157  34.1 2.84e-255 1.77e-251
##  4 ENSMUSG00000027750.17    9482.           4.05 0.125  32.4 2.26e-230 1.06e-226
##  5 ENSMUSG00000042828.13    3906.          -5.32 0.167 -31.8 1.67e-221 6.25e-218
##  6 ENSMUSG00000046598.16    1154.          -6.08 0.197 -30.8 4.77e-208 1.49e-204
##  7 ENSMUSG00000019817.19    1952.           5.15 0.171  30.1 1.43e-198 3.83e-195
##  8 ENSMUSG00000021622.4    17146.          -4.57 0.157 -29.0 4.41e-185 1.03e-181
##  9 ENSMUSG00000002500.16    2121.          -6.20 0.217 -28.5 6.69e-179 1.39e-175
## 10 ENSMUSG00000024598.10    1885.           5.90 0.209  28.2 5.56e-175 1.04e-171
## # ... with 21,203 more rows
…
lfcSE - the standard error for the log2FoldChange estimate

stat - the Wald statistic associated with the log2FoldChange estimate

pvalue - the nominal p-value of the Wald test (i.e. the signifiance of the association)

padj - the multiple testing adjusted p-value (i.e. false discovery rate)

In the P0 vs Ad comparison, we can check the number of significant results easily:

# number of genes significant at FDR < 0.05
filter(p0_vs_Ad_de,padj<0.05)

## # A tibble: 7,557 x 7
##    gene                  baseMean log2FoldChange lfcSE  stat    pvalue      padj
##    <chr>                    <dbl>          <dbl> <dbl> <dbl>     <dbl>     <dbl>
##  1 ENSMUSG00000000031.17   19624.           6.75 0.190  35.6 5.70e-278 1.07e-273
##  2 ENSMUSG00000026418.17    9671.           9.84 0.285  34.5 2.29e-261 2.15e-257
##  3 ENSMUSG00000051855.16    3462.           5.35 0.157  34.1 2.84e-255 1.77e-251
##  4 ENSMUSG00000027750.17    9482.           4.05 0.125  32.4 2.26e-230 1.06e-226
##  5 ENSMUSG00000042828.13    3906.          -5.32 0.167 -31.8 1.67e-221 6.25e-218
##  6 ENSMUSG00000046598.16    1154.          -6.08 0.197 -30.8 4.77e-208 1.49e-204
##  7 ENSMUSG00000019817.19    1952.           5.15 0.171  30.1 1.43e-198 3.83e-195
##  8 ENSMUSG00000021622.4    17146.          -4.57 0.157 -29.0 4.41e-185 1.03e-181
##  9 ENSMUSG00000002500.16    2121.          -6.20 0.217 -28.5 6.69e-179 1.39e-175
## 10 ENSMUSG00000024598.10    1885.           5.90 0.209  28.2 5.56e-175 1.04e-171
## # ... with 7,547 more rows
…
