8.8 Gene Set Enrichment Analysis | BF591 - R for Biological Sciences
…
read_delim('h.all.v7.5.1.symbols.gmt', delim='\t', col_names=FALSE) %>%
  dplyr::rename(Pathway = X1, Desc=X2) %>%
  dplyr::select(-Desc) %>%
  pivot_longer(!Pathway, values_to='genes', values_drop_na=TRUE, names_to = NULL) %>%
  group_by(Pathway) %>%
  summarise(n=n())

## # A tibble: 50 x 2
##    Pathway                              n
##    <chr>                            <int>
##  1 HALLMARK_ADIPOGENESIS              200
##  2 HALLMARK_ALLOGRAFT_REJECTION       200
##  3 HALLMARK_ANDROGEN_RESPONSE         100
##  4 HALLMARK_ANGIOGENESIS               36
##  5 HALLMARK_APICAL_JUNCTION           200
##  6 HALLMARK_APICAL_SURFACE             44
##  7 HALLMARK_APOPTOSIS                 161
##  8 HALLMARK_BILE_ACID_METABOLISM      112
##  9 HALLMARK_CHOLESTEROL_HOMEOSTASIS    74
## 10 HALLMARK_COAGULATION               138
## # ... with 40 more rows
…
