5.10 Relational Data | BF591 - R for Biological Sciences
…
readr::read_tsv("mart_export.tsv") %>%
  dplyr::filter(
    `HGNC symbol` != "NA" & # many unstudied genes have Ensembl IDs but no official symbol
    `HGNC symbol` %in% `HGNC symbol`[duplicated(`HGNC symbol`)]) %>%
  dplyr::arrange(`HGNC symbol`)

## # A tibble: 7,268 x 3
##    `Gene stable ID` `HGNC symbol` `Gene name`                                
##    <chr>            <chr>         <chr>                                      
##  1 ENSG00000261846  AADACL2       arylacetamide deacetylase like 2           
##  2 ENSG00000197953  AADACL2       arylacetamide deacetylase like 2           
##  3 ENSG00000262466  AADACL2-AS1   <NA>                                       
##  4 ENSG00000242908  AADACL2-AS1   <NA>                                       
##  5 ENSG00000276072  AATF          apoptosis antagonizing transcription factor
##  6 ENSG00000275700  AATF          apoptosis antagonizing transcription factor
##  7 ENSG00000281173  ABCB10P1      <NA>                                       
##  8 ENSG00000280461  ABCB10P1      <NA>                                       
##  9 ENSG00000274099  ABCB10P1      <NA>                                       
## 10 ENSG00000282479  ABCB10P3      <NA>                                       
## # ... with 7,258 more rows
…
